<svg id="icone-folder" xmlns="http://www.w3.org/2000/svg" width="166.207" height="145.433" viewBox="0 0 166.207 145.433">
  <path id="Path_128" data-name="Path 128" d="M20.776,4A13.869,13.869,0,0,0,6.926,17.85V33.635A13.8,13.8,0,0,0,0,45.552v90.031a13.871,13.871,0,0,0,13.85,13.85H152.357a13.868,13.868,0,0,0,13.85-13.85V45.552a13.8,13.8,0,0,0-6.926-11.918V31.7a13.869,13.869,0,0,0-13.85-13.85h-55.4L69.252,4Zm0,20.776H145.433a13.843,13.843,0,0,1,12.606,8.183,13.727,13.727,0,0,0-5.682-1.257H13.85a13.736,13.736,0,0,0-5.682,1.257,13.846,13.846,0,0,1,12.606-8.183Z" transform="translate(0 -4)" fill="#11a1e4"/>
</svg>
