<svg xmlns="http://www.w3.org/2000/svg" width="130.357" height="116.318" viewBox="0 0 130.357 116.318">
  <g id="icone-mo-informa" transform="translate(1 1)">
    <g id="Group_74" data-name="Group 74">
      <g id="Group_47" data-name="Group 47" transform="translate(44.123 36.098)">
        <g id="Group_41" data-name="Group 41" transform="translate(0 24.069)">
          <path id="Path_93" data-name="Path 93" d="M52.084,37.511H24.006a2.006,2.006,0,1,1,0-4.011H52.084a2.006,2.006,0,1,1,0,4.011Z" transform="translate(-22 -33.5)" fill="#0fa5e4" stroke="#0fa5e4" stroke-width="1"/>
        </g>
        <g id="Group_42" data-name="Group 42" transform="translate(4.011 0.002)">
          <path id="Path_94" data-name="Path 94" d="M26.006,49.578A2,2,0,0,1,24,47.572V23.506a2.006,2.006,0,0,1,4.011,0V47.572A2,2,0,0,1,26.006,49.578Z" transform="translate(-24 -21.5)" fill="#0fa5e4" stroke="#0fa5e4" stroke-width="1"/>
        </g>
        <g id="Group_43" data-name="Group 43" transform="translate(24.067 7.164)">
          <path id="Path_95" data-name="Path 95" d="M36.006,45.987A2,2,0,0,1,34,43.982V27.077a2.006,2.006,0,1,1,4.011,0V43.982A2,2,0,0,1,36.006,45.987Z" transform="translate(-34 -25.071)" fill="#0fa5e4" stroke="#0fa5e4" stroke-width="1"/>
        </g>
        <g id="Group_44" data-name="Group 44" transform="translate(0.001 0.001)">
          <path id="Path_96" data-name="Path 96" d="M24.007,35.539A2.006,2.006,0,0,1,22.84,31.9L36.879,21.873a2.006,2.006,0,0,1,2.332,3.263L25.172,35.164A2,2,0,0,1,24.007,35.539Z" transform="translate(-22.001 -21.5)" fill="#0fa5e4" stroke="#0fa5e4" stroke-width="1"/>
        </g>
        <g id="Group_45" data-name="Group 45" transform="translate(14.039 0)">
          <path id="Path_97" data-name="Path 97" d="M45.042,35.54a1.993,1.993,0,0,1-1.163-.375L29.84,25.137a2.006,2.006,0,1,1,2.332-3.263L46.212,31.9a2.006,2.006,0,0,1-1.169,3.638Z" transform="translate(-29 -21.499)" fill="#0fa5e4" stroke="#0fa5e4" stroke-width="1"/>
        </g>
        <g id="Group_46" data-name="Group 46" transform="translate(14.039 18.052)">
          <path id="Path_98" data-name="Path 98" d="M31.006,40.528A2,2,0,0,1,29,38.522V32.506a2.006,2.006,0,1,1,4.011,0v6.017A2,2,0,0,1,31.006,40.528Z" transform="translate(-29 -30.5)" fill="#0fa5e4" stroke="#0fa5e4" stroke-width="1"/>
        </g>
      </g>
      <g id="Group_48" data-name="Group 48" transform="translate(0 94.262)">
        <path id="Path_99" data-name="Path 99" d="M18.05,70.556A18.07,18.07,0,0,1,0,52.506a2.006,2.006,0,1,1,4.011,0,14.039,14.039,0,1,0,28.078,0,2.006,2.006,0,0,1,4.011,0A18.07,18.07,0,0,1,18.05,70.556Z" transform="translate(0 -50.5)" fill="#0fa5e4" stroke="#0fa5e4" stroke-width="2"/>
      </g>
      <g id="Group_49" data-name="Group 49" transform="translate(8.022 94.262)">
        <path id="Path_100" data-name="Path 100" d="M14.028,62.533A10.039,10.039,0,0,1,4,52.506a2.006,2.006,0,1,1,4.011,0,6.017,6.017,0,1,0,12.033,0,2.006,2.006,0,1,1,4.011,0A10.039,10.039,0,0,1,14.028,62.533Z" transform="translate(-4 -50.5)" fill="#0fa5e4" stroke="#0fa5e4" stroke-width="2"/>
      </g>
      <g id="Group_50" data-name="Group 50" transform="translate(16.045 110.307)">
        <path id="Path_101" data-name="Path 101" d="M102.262,62.511H10.006a2.006,2.006,0,1,1,0-4.011h92.257a2.006,2.006,0,0,1,0,4.011Z" transform="translate(-8 -58.5)" fill="#0fa5e4" stroke="#0fa5e4" stroke-width="2"/>
      </g>
      <g id="Group_51" data-name="Group 51" transform="translate(108.301 94.262)">
        <path id="Path_102" data-name="Path 102" d="M56.006,70.556a2.006,2.006,0,1,1,0-4.011A14.057,14.057,0,0,0,70.045,52.506a2.006,2.006,0,0,1,4.011,0A18.07,18.07,0,0,1,56.006,70.556Z" transform="translate(-54 -50.5)" fill="#0fa5e4" stroke="#0fa5e4" stroke-width="2"/>
      </g>
      <g id="Group_52" data-name="Group 52" transform="translate(124.346)">
        <path id="Path_103" data-name="Path 103" d="M64.006,101.773A2,2,0,0,1,62,99.768V5.506a2.006,2.006,0,0,1,4.011,0V99.768A2,2,0,0,1,64.006,101.773Z" transform="translate(-62 -3.5)" fill="#0fa5e4" stroke="#0fa5e4" stroke-width="2"/>
      </g>
      <g id="Group_53" data-name="Group 53" transform="translate(32.089)">
        <path id="Path_104" data-name="Path 104" d="M18.006,101.773A2,2,0,0,1,16,99.768V5.506a2.006,2.006,0,0,1,4.011,0V99.768A2,2,0,0,1,18.006,101.773Z" transform="translate(-16 -3.5)" fill="#0fa5e4" stroke="#0fa5e4" stroke-width="2"/>
      </g>
      <g id="Group_54" data-name="Group 54" transform="translate(32.089)">
        <path id="Path_105" data-name="Path 105" d="M110.262,7.511H18.006a2.006,2.006,0,1,1,0-4.011h92.257a2.006,2.006,0,1,1,0,4.011Z" transform="translate(-16 -3.5)" fill="#0fa5e4" stroke="#0fa5e4" stroke-width="2"/>
      </g>
      <g id="Group_55" data-name="Group 55" transform="translate(0 24.067)">
        <path id="Path_106" data-name="Path 106" d="M2.006,89.706A2,2,0,0,1,0,87.7v-70.2a2.006,2.006,0,1,1,4.011,0V87.7A2,2,0,0,1,2.006,89.706Z" transform="translate(0 -15.5)" fill="#0fa5e4" stroke="#0fa5e4" stroke-width="2"/>
      </g>
      <g id="Group_56" data-name="Group 56" transform="translate(0 24.067)">
        <path id="Path_107" data-name="Path 107" d="M26.072,19.511H2.006a2.006,2.006,0,0,1,0-4.011H26.072a2.006,2.006,0,0,1,0,4.011Z" transform="translate(0 -15.5)" fill="#0fa5e4" stroke="#0fa5e4" stroke-width="2"/>
      </g>
      <g id="Group_57" data-name="Group 57" transform="translate(24.067)">
        <path id="Path_108" data-name="Path 108" d="M14.006,101.773A2,2,0,0,1,12,99.768V5.506a2.006,2.006,0,1,1,4.011,0V99.768A2,2,0,0,1,14.006,101.773Z" transform="translate(-12 -3.5)" fill="#0fa5e4" stroke="#0fa5e4" stroke-width="2"/>
      </g>
      <g id="Group_58" data-name="Group 58" transform="translate(8.022 24.067)">
        <path id="Path_109" data-name="Path 109" d="M6.006,89.706A2,2,0,0,1,4,87.7v-70.2a2.006,2.006,0,1,1,4.011,0V87.7A2,2,0,0,1,6.006,89.706Z" transform="translate(-4 -15.5)" fill="#0fa5e4" stroke="#0fa5e4" stroke-width="2"/>
      </g>
      <g id="Group_59" data-name="Group 59" transform="translate(24.067)">
        <path id="Path_110" data-name="Path 110" d="M22.028,7.511H14.006a2.006,2.006,0,1,1,0-4.011h8.022a2.006,2.006,0,1,1,0,4.011Z" transform="translate(-12 -3.5)" fill="#0fa5e4" stroke="#0fa5e4" stroke-width="2"/>
      </g>
      <g id="Group_60" data-name="Group 60" transform="translate(44.123 12.033)">
        <path id="Path_111" data-name="Path 111" d="M92.2,23.539H24.006A2,2,0,0,1,22,21.533V11.506A2,2,0,0,1,24.006,9.5H92.2A2,2,0,0,1,94.2,11.506V21.533A2,2,0,0,1,92.2,23.539ZM26.011,19.528H90.19V13.511H26.011Z" transform="translate(-22 -9.5)" fill="#0fa5e4" stroke="#0fa5e4" stroke-width="1"/>
      </g>
      <g id="Group_61" data-name="Group 61" transform="translate(84.234 38.106)">
        <path id="Path_112" data-name="Path 112" d="M72.084,26.511H44.006a2.006,2.006,0,0,1,0-4.011H72.084a2.006,2.006,0,1,1,0,4.011Z" transform="translate(-42 -22.5)" fill="#0fa5e4" stroke="#0fa5e4" stroke-width="1"/>
      </g>
      <g id="Group_62" data-name="Group 62" transform="translate(84.234 48.134)">
        <path id="Path_113" data-name="Path 113" d="M72.084,31.511H44.006a2.006,2.006,0,1,1,0-4.011H72.084a2.006,2.006,0,1,1,0,4.011Z" transform="translate(-42 -27.5)" fill="#0fa5e4" stroke="#0fa5e4" stroke-width="1"/>
      </g>
      <g id="Group_63" data-name="Group 63" transform="translate(84.234 58.162)">
        <path id="Path_114" data-name="Path 114" d="M58.045,36.511H44.006a2.006,2.006,0,1,1,0-4.011H58.045a2.006,2.006,0,0,1,0,4.011Z" transform="translate(-42 -32.5)" fill="#0fa5e4" stroke="#0fa5e4" stroke-width="1"/>
      </g>
      <g id="Group_70" data-name="Group 70" transform="translate(84.234 74.204)">
        <g id="Group_64" data-name="Group 64" transform="translate(0 24.069)">
          <path id="Path_115" data-name="Path 115" d="M72.084,56.511H44.006a2.006,2.006,0,0,1,0-4.011H72.084a2.006,2.006,0,0,1,0,4.011Z" transform="translate(-42 -52.5)" fill="#0fa5e4" stroke="#0fa5e4" stroke-width="1"/>
        </g>
        <g id="Group_65" data-name="Group 65" transform="translate(4.011 0.002)">
          <path id="Path_116" data-name="Path 116" d="M46.006,68.578A2,2,0,0,1,44,66.572V42.506a2.006,2.006,0,1,1,4.011,0V66.572A2,2,0,0,1,46.006,68.578Z" transform="translate(-44 -40.5)" fill="#0fa5e4" stroke="#0fa5e4" stroke-width="1"/>
        </g>
        <g id="Group_66" data-name="Group 66" transform="translate(24.067 7.164)">
          <path id="Path_117" data-name="Path 117" d="M56.006,64.987A2,2,0,0,1,54,62.982V46.077a2.006,2.006,0,1,1,4.011,0V62.982A2,2,0,0,1,56.006,64.987Z" transform="translate(-54 -44.071)" fill="#0fa5e4" stroke="#0fa5e4" stroke-width="1"/>
        </g>
        <g id="Group_67" data-name="Group 67" transform="translate(0.001)">
          <path id="Path_118" data-name="Path 118" d="M44.007,54.54A2.006,2.006,0,0,1,42.84,50.9L56.879,40.874a2.006,2.006,0,1,1,2.332,3.263L45.172,54.165A2,2,0,0,1,44.007,54.54Z" transform="translate(-42.001 -40.499)" fill="#0fa5e4" stroke="#0fa5e4" stroke-width="1"/>
        </g>
        <g id="Group_68" data-name="Group 68" transform="translate(14.039)">
          <path id="Path_119" data-name="Path 119" d="M65.042,54.54a1.993,1.993,0,0,1-1.163-.375L49.84,44.137a2.006,2.006,0,0,1,2.332-3.263L66.212,50.9a2.006,2.006,0,0,1-1.169,3.638Z" transform="translate(-49 -40.499)" fill="#0fa5e4" stroke="#0fa5e4" stroke-width="1"/>
        </g>
        <g id="Group_69" data-name="Group 69" transform="translate(14.039 18.052)">
          <path id="Path_120" data-name="Path 120" d="M51.006,59.528A2,2,0,0,1,49,57.522V51.506a2.006,2.006,0,0,1,4.011,0v6.017A2,2,0,0,1,51.006,59.528Z" transform="translate(-49 -49.5)" fill="#0fa5e4" stroke="#0fa5e4" stroke-width="1"/>
        </g>
      </g>
      <g id="Group_71" data-name="Group 71" transform="translate(44.123 76.212)">
        <path id="Path_121" data-name="Path 121" d="M52.084,45.511H24.006a2.006,2.006,0,1,1,0-4.011H52.084a2.006,2.006,0,1,1,0,4.011Z" transform="translate(-22 -41.5)" fill="#0fa5e4" stroke="#0fa5e4" stroke-width="1"/>
      </g>
      <g id="Group_72" data-name="Group 72" transform="translate(44.123 86.24)">
        <path id="Path_122" data-name="Path 122" d="M52.084,50.511H24.006a2.006,2.006,0,1,1,0-4.011H52.084a2.006,2.006,0,1,1,0,4.011Z" transform="translate(-22 -46.5)" fill="#0fa5e4" stroke="#0fa5e4" stroke-width="1"/>
      </g>
      <g id="Group_73" data-name="Group 73" transform="translate(44.123 96.268)">
        <path id="Path_123" data-name="Path 123" d="M38.045,55.511H24.006a2.006,2.006,0,1,1,0-4.011H38.045a2.006,2.006,0,0,1,0,4.011Z" transform="translate(-22 -51.5)" fill="#0fa5e4" stroke="#0fa5e4" stroke-width="1"/>
      </g>
    </g>
  </g>
</svg>
