<svg id="icone-folder-pequeno" xmlns="http://www.w3.org/2000/svg" width="59.999" height="52.5" viewBox="0 0 59.999 52.5">
  <path id="Path_133" data-name="Path 133" d="M7.5,4a5.007,5.007,0,0,0-5,5v5.7A4.981,4.981,0,0,0,0,19V51.5a5.007,5.007,0,0,0,5,5H55a5.006,5.006,0,0,0,5-5V19a4.981,4.981,0,0,0-2.5-4.3V14a5.007,5.007,0,0,0-5-5h-20L25,4Zm0,7.5h45a5,5,0,0,1,4.551,2.954A4.955,4.955,0,0,0,55,14H5a4.959,4.959,0,0,0-2.051.454A5,5,0,0,1,7.5,11.5Z" transform="translate(0 -4)" fill="#11a1e4"/>
</svg>
