<svg id="icone-baixar" xmlns="http://www.w3.org/2000/svg" width="18" height="18" viewBox="0 0 18 18">
  <rect id="Rectangle_54" data-name="Rectangle 54" width="18" height="4" transform="translate(0 14)" fill="#0fa5e4"/>
  <rect id="Rectangle_55" data-name="Rectangle 55" width="9" height="4" transform="translate(7 9) rotate(-90)" fill="#0fa5e4"/>
  <path id="Polygon_14" data-name="Polygon 14" d="M5,0l5,6H0Z" transform="translate(14 13) rotate(180)" fill="#0fa5e4"/>
</svg>
